<?xml version="1.0" encoding="utf-8"?>
<!-- Generator: Adobe Illustrator 19.0.0, SVG Export Plug-In . SVG Version: 6.00 Build 0)  -->
<!DOCTYPE svg PUBLIC "-//W3C//DTD SVG 1.1//EN" "http://www.w3.org/Graphics/SVG/1.1/DTD/svg11.dtd">
<svg version="1.1" id="Layer_1" xmlns="http://www.w3.org/2000/svg" xmlns:xlink="http://www.w3.org/1999/xlink" x="0px" y="0px"
	 viewBox="0 0 216 216" style="enable-background:new 0 0 216 216;" xml:space="preserve">
<style type="text/css">
	.st0{fill-rule:evenodd;clip-rule:evenodd;fill:#FFFFFF;}
</style>
<path class="st0" d="M189.5,114.2c-1.6,21.2-11.2,40.2-25.9,53.8c-14.6,13.5-34.1,21.8-55.5,21.8c-9.7,0-19.1-1.7-27.8-4.9
	c-9-3.3-17.3-8.1-24.5-14.1c-1.6-1.4-1.9-3.8-0.5-5.5c0.1-0.1,0.2-0.2,0.3-0.3l19.2-19.8c1.4-1.4,3.6-1.6,5.1-0.4l0,0
	c4,3,8.5,5.5,13.3,7.1c4.6,1.6,9.6,2.4,14.9,2.4c11.8,0,22.6-4.4,30.7-11.7c8.3-7.4,13.9-17.6,15.2-29.2c0.2-2.1,2.1-3.6,4.1-3.4
	l27.5,0c2.1,0,3.9,1.7,3.9,3.9C189.5,114,189.5,114.1,189.5,114.2L189.5,114.2L189.5,114.2z M114.4,26.7c20,1.5,38,10.3,51.4,23.7
	c13.4,13.4,22.2,31.5,23.7,51.7c0.2,2.1-1.5,4-3.6,4.1c-0.1,0-0.2,0-0.3,0v0h-27.7c-2.1,0-3.7-1.6-3.9-3.6
	c-1.3-10.6-6.1-20-13.2-27.2c-7.2-7.2-16.7-12-27.3-13.2c-2-0.2-3.4-1.9-3.4-3.9h0V30.5c0-2.1,1.7-3.9,3.9-3.9
	C114.1,26.6,114.3,26.7,114.4,26.7L114.4,26.7z M160.4,55.8c-11.2-11.2-26-18.9-42.6-21v20.1c11,2,20.9,7.3,28.5,15
	c7.6,7.6,13,17.5,15,28.5h20.1C179.2,81.9,171.6,67.1,160.4,55.8L160.4,55.8z M47.1,162.3c-6.5-7.3-11.8-15.9-15.3-25.2
	c-3.4-9-5.3-18.8-5.3-29c0-21.4,8.3-40.9,21.8-55.5C61.9,37.9,80.8,28.2,102,26.7c2.1-0.2,4,1.5,4.1,3.6c0,0.2,0,0.4,0,0.5l0,27.5
	c0,2-1.5,3.6-3.4,3.8l0,0c-11.6,1.3-21.8,6.9-29.2,15.2c-7.3,8.2-11.7,18.9-11.7,30.7c0,5.5,0.9,10.7,2.7,15.6
	c1.8,5,4.4,9.7,7.8,13.7c1.3,1.6,1.1,4-0.4,5.3l-19.1,19.8c-1.5,1.5-3.9,1.6-5.5,0.1C47.2,162.5,47.2,162.4,47.1,162.3L47.1,162.3
	L47.1,162.3z"/>
</svg>
